{
  "type": "FeatureCollection",
  "generator": "overpass-ide",
  "copyright": "The data included in this document is from www.openstreetmap.org. The data is made available under ODbL.",
  "timestamp": "2022-06-20T08:54:56Z",
  "features": [
    {
      "type": "Feature",
      "properties": {
        "@id": "way/49963575",
        "highway": "tertiary",
        "name": "Rue de Phalsbourg"
      },
      "geometry": {
        "type": "LineString",
        "coordinates": [
          [
            1.8748789,
            50.9579538
          ],
          [
            1.8748842,
            50.9579207
          ],
          [
            1.8748856,
            50.9578849
          ],
          [
            1.874888,
            50.9578124
          ],
          [
            1.8748936,
            50.9577509
          ],
          [
            1.8749028,
            50.9577092
          ],
          [
            1.8749169,
            50.9576453
          ],
          [
            1.8751464,
            50.9567387
          ],
          [
            1.875162,
            50.9566769
          ],
          [
            1.8754068,
            50.9557963
          ],
          [
            1.8754297,
            50.9557128
          ],
          [
            1.8756478,
            50.9549196
          ],
          [
            1.8756743,
            50.9548285
          ],
          [
            1.8758161,
            50.9543158
          ],
          [
            1.8758572,
            50.9541684
          ],
          [
            1.876044,
            50.9535029
          ],
          [
            1.8760721,
            50.9534005
          ],
          [
            1.8764158,
            50.9523347
          ],
          [
            1.8765596,
            50.9519031
          ],
          [
            1.876574,
            50.9518599
          ],
          [
            1.8766027,
            50.9517694
          ]
        ]
      },
      "id": "way/49963575"
    },
    {
      "type": "Feature",
      "properties": {
        "@id": "way/53648680",
        "highway": "residential",
        "name": "Rue Jean Baptiste Lamarck",
        "source": "cadastre-dgi-fr source : Direction Générale des Impôts - Cadastre. Mise à jour : 2010"
      },
      "geometry": {
        "type": "LineString",
        "coordinates": [
          [
            1.8722267,
            50.9563101
          ],
          [
            1.873089,
            50.9564468
          ],
          [
            1.8733032,
            50.956476
          ],
          [
            1.8734765,
            50.9564961
          ],
          [
            1.8742937,
            50.9565818
          ],
          [
            1.875162,
            50.9566769
          ]
        ]
      },
      "id": "way/53648680"
    },
    {
      "type": "Feature",
      "properties": {
        "@id": "way/53885377",
        "highway": "residential",
        "name": "Rue Dupetit Thouars",
        "source": "cadastre-dgi-fr source : Direction Générale des Impôts - Cadastre. Mise à jour : 2010"
      },
      "geometry": {
        "type": "LineString",
        "coordinates": [
          [
            1.8701213,
            50.959646
          ],
          [
            1.8716993,
            50.9600914
          ],
          [
            1.8724032,
            50.9602811
          ],
          [
            1.8726416,
            50.9603454
          ],
          [
            1.8728744,
            50.9604061
          ],
          [
            1.8740534,
            50.9607001
          ]
        ]
      },
      "id": "way/53885377"
    },
    {
      "type": "Feature",
      "properties": {
        "@id": "way/53885379",
        "highway": "residential",
        "name": "Rue de Bitche",
        "source": "cadastre-dgi-fr source : Direction Générale des Impôts - Cadastre. Mise à jour : 2010"
      },
      "geometry": {
        "type": "LineString",
        "coordinates": [
          [
            1.873347,
            50.9631291
          ],
          [
            1.8733779,
            50.9630232
          ],
          [
            1.8737533,
            50.9617376
          ],
          [
            1.873787,
            50.9616223
          ],
          [
            1.8740534,
            50.9607001
          ],
          [
            1.8742089,
            50.960169
          ],
          [
            1.8743121,
            50.9598168
          ],
          [
            1.874496,
            50.9591281
          ],
          [
            1.8747489,
            50.9582503
          ],
          [
            1.8747675,
            50.958186
          ],
          [
            1.8747803,
            50.958154
          ],
          [
            1.8747999,
            50.9581163
          ],
          [
            1.8748198,
            50.9580821
          ],
          [
            1.8748544,
            50.958028
          ],
          [
            1.8748695,
            50.9579891
          ],
          [
            1.8748789,
            50.9579538
          ]
        ]
      },
      "id": "way/53885379"
    },
    {
      "type": "Feature",
      "properties": {
        "@id": "way/53885389",
        "highway": "residential",
        "name": "Rue Fontenelle",
        "source": "cadastre-dgi-fr source : Direction Générale des Impôts - Cadastre. Mise à jour : 2010"
      },
      "geometry": {
        "type": "LineString",
        "coordinates": [
          [
            1.8719492,
            50.9594068
          ],
          [
            1.8720256,
            50.9594201
          ],
          [
            1.8743121,
            50.9598168
          ]
        ]
      },
      "id": "way/53885389"
    },
    {
      "type": "Feature",
      "properties": {
        "@id": "way/53885390",
        "highway": "residential",
        "name": "Rue du Lieutenant Eugène Dutarte",
        "source": "cadastre-dgi-fr source : Direction Générale des Impôts - Cadastre. Mise à jour : 2010"
      },
      "geometry": {
        "type": "LineString",
        "coordinates": [
          [
            1.874496,
            50.9591281
          ],
          [
            1.8739889,
            50.9590795
          ],
          [
            1.8738699,
            50.9590632
          ],
          [
            1.8733293,
            50.958966
          ],
          [
            1.8729114,
            50.9588935
          ]
        ]
      },
      "id": "way/53885390"
    },
    {
      "type": "Feature",
      "properties": {
        "@id": "way/53885392",
        "highway": "residential",
        "name": "Rue du Capitaine de Frégate Marcel Bourgine",
        "source": "cadastre-dgi-fr source : Direction Générale des Impôts - Cadastre. Mise à jour : 2010"
      },
      "geometry": {
        "type": "LineString",
        "coordinates": [
          [
            1.8738857,
            50.9577626
          ],
          [
            1.8738549,
            50.9578177
          ],
          [
            1.8735291,
            50.9584367
          ],
          [
            1.8733293,
            50.958966
          ]
        ]
      },
      "id": "way/53885392"
    },
    {
      "type": "Feature",
      "properties": {
        "@id": "way/53885393",
        "highway": "residential",
        "name": "Rue du 19 Mars 1962",
        "source": "cadastre-dgi-fr source : Direction Générale des Impôts - Cadastre. Mise à jour : 2010"
      },
      "geometry": {
        "type": "LineString",
        "coordinates": [
          [
            1.8769345,
            50.9613314
          ],
          [
            1.8771644,
            50.9608181
          ],
          [
            1.8771725,
            50.9607811
          ],
          [
            1.8771698,
            50.960746
          ],
          [
            1.8771524,
            50.9607182
          ],
          [
            1.877107,
            50.9607006
          ],
          [
            1.8770496,
            50.9606868
          ],
          [
            1.876517,
            50.9605894
          ],
          [
            1.8770922,
            50.9593144
          ]
        ]
      },
      "id": "way/53885393"
    },
    {
      "type": "Feature",
      "properties": {
        "@id": "way/57388339",
        "highway": "residential",
        "name": "Rue René Cassin",
        "source": "cadastre-dgi-fr source : Direction Générale des Impôts - Cadastre. Mise à jour : 2010"
      },
      "geometry": {
        "type": "LineString",
        "coordinates": [
          [
            1.8761989,
            50.9593514
          ],
          [
            1.8770922,
            50.9593144
          ],
          [
            1.8783242,
            50.9596005
          ],
          [
            1.8780378,
            50.9602339
          ],
          [
            1.8777514,
            50.9608232
          ]
        ]
      },
      "id": "way/57388339"
    },
    {
      "type": "Feature",
      "properties": {
        "@id": "way/57844972",
        "bridge": "yes",
        "ele": "3",
        "highway": "tertiary",
        "layer": "1",
        "source": "cadastre-dgi-fr source : Direction Générale des Impôts - Cadastre. Mise à jour : 2010"
      },
      "geometry": {
        "type": "LineString",
        "coordinates": [
          [
            1.8753888,
            50.9580001
          ],
          [
            1.8750774,
            50.957968
          ]
        ]
      },
      "id": "way/57844972"
    },
    {
      "type": "Feature",
      "properties": {
        "@id": "way/177312595",
        "highway": "tertiary",
        "name": "Rue du Nord",
        "source": "cadastre-dgi-fr source : Direction Générale des Impôts - Cadastre. Mise à jour : 2010"
      },
      "geometry": {
        "type": "LineString",
        "coordinates": [
          [
            1.8755402,
            50.9610761
          ],
          [
            1.8761233,
            50.9600352
          ],
          [
            1.8761569,
            50.9599726
          ],
          [
            1.8761818,
            50.9599212
          ],
          [
            1.8762002,
            50.9598747
          ],
          [
            1.8762146,
            50.9598273
          ],
          [
            1.8762251,
            50.9597753
          ],
          [
            1.8762277,
            50.9597207
          ],
          [
            1.8762275,
            50.9596747
          ],
          [
            1.8762202,
            50.9595644
          ],
          [
            1.8762069,
            50.959448
          ],
          [
            1.8761989,
            50.9593514
          ],
          [
            1.8761645,
            50.9589343
          ],
          [
            1.8761574,
            50.9588747
          ],
          [
            1.8761397,
            50.9588169
          ],
          [
            1.8761125,
            50.9587561
          ],
          [
            1.8760647,
            50.9586866
          ],
          [
            1.8759851,
            50.958583
          ],
          [
            1.8757399,
            50.958298
          ],
          [
            1.8755937,
            50.9581282
          ],
          [
            1.87557,
            50.9580972
          ],
          [
            1.8755521,
            50.9580652
          ],
          [
            1.8755439,
            50.9580402
          ],
          [
            1.8755385,
            50.9580124
          ]
        ]
      },
      "id": "way/177312595"
    },
    {
      "type": "Feature",
      "properties": {
        "@id": "way/209042147",
        "highway": "tertiary",
        "name": "Rue Mollien"
      },
      "geometry": {
        "type": "LineString",
        "coordinates": [
          [
            1.8748789,
            50.9579538
          ],
          [
            1.8750319,
            50.9579647
          ],
          [
            1.8750774,
            50.957968
          ]
        ]
      },
      "id": "way/209042147"
    },
    {
      "type": "Feature",
      "properties": {
        "@id": "way/209042149",
        "highway": "residential",
        "name": "Rue du Nord",
        "source": "cadastre-dgi-fr source : Direction Générale des Impôts - Cadastre. Mise à jour : 2010"
      },
      "geometry": {
        "type": "LineString",
        "coordinates": [
          [
            1.8760807,
            50.9559594
          ],
          [
            1.8764093,
            50.9559344
          ]
        ]
      },
      "id": "way/209042149"
    },
    {
      "type": "Feature",
      "properties": {
        "@id": "way/209042150",
        "bicycle": "yes",
        "foot": "yes",
        "highway": "residential",
        "name": "Rue du Nord",
        "source": "cadastre-dgi-fr source : Direction Générale des Impôts - Cadastre. Mise à jour : 2010",
        "surface": "asphalt"
      },
      "geometry": {
        "type": "LineString",
        "coordinates": [
          [
            1.8755385,
            50.9580124
          ],
          [
            1.8755382,
            50.9579794
          ],
          [
            1.8755479,
            50.957932
          ],
          [
            1.8755575,
            50.9578871
          ],
          [
            1.8756979,
            50.9573942
          ],
          [
            1.8758232,
            50.9569382
          ],
          [
            1.8759236,
            50.9565064
          ],
          [
            1.8760206,
            50.9561877
          ],
          [
            1.8760807,
            50.9559594
          ]
        ]
      },
      "id": "way/209042150"
    },
    {
      "type": "Feature",
      "properties": {
        "@id": "way/209042152",
        "highway": "tertiary",
        "name": "Rue du Petit Courgain"
      },
      "geometry": {
        "type": "LineString",
        "coordinates": [
          [
            1.8753888,
            50.9580001
          ],
          [
            1.8754444,
            50.9580047
          ],
          [
            1.8755385,
            50.9580124
          ]
        ]
      },
      "id": "way/209042152"
    },
    {
      "type": "Feature",
      "properties": {
        "@id": "way/583042225",
        "highway": "tertiary",
        "name": "Rue Mollien"
      },
      "geometry": {
        "type": "LineString",
        "coordinates": [
          [
            1.8597951,
            50.9546763
          ],
          [
            1.8599215,
            50.9547092
          ],
          [
            1.8600055,
            50.9547311
          ],
          [
            1.8605667,
            50.9548773
          ],
          [
            1.8606813,
            50.9549061
          ],
          [
            1.861156,
            50.9550319
          ],
          [
            1.8615721,
            50.9551409
          ],
          [
            1.8616761,
            50.9551685
          ],
          [
            1.8625959,
            50.9554122
          ],
          [
            1.8626714,
            50.9554306
          ],
          [
            1.8627557,
            50.9554486
          ],
          [
            1.8639191,
            50.9556812
          ],
          [
            1.8640025,
            50.9556979
          ],
          [
            1.8643387,
            50.9557655
          ],
          [
            1.8646237,
            50.9558227
          ],
          [
            1.8646728,
            50.9558326
          ],
          [
            1.8648135,
            50.9558608
          ],
          [
            1.8649152,
            50.9558812
          ],
          [
            1.8649798,
            50.9558942
          ],
          [
            1.865167,
            50.9559318
          ],
          [
            1.8654818,
            50.955995
          ],
          [
            1.8661908,
            50.9561395
          ],
          [
            1.8669072,
            50.9562868
          ],
          [
            1.866992,
            50.9563043
          ],
          [
            1.8674946,
            50.9564046
          ],
          [
            1.867612,
            50.956428
          ],
          [
            1.8677227,
            50.9564502
          ],
          [
            1.8686463,
            50.9566348
          ],
          [
            1.869237,
            50.9567579
          ],
          [
            1.8693682,
            50.9567853
          ],
          [
            1.8694401,
            50.9568007
          ],
          [
            1.8705823,
            50.9570555
          ],
          [
            1.8708139,
            50.957106
          ],
          [
            1.870926,
            50.9571296
          ],
          [
            1.8710389,
            50.9571533
          ],
          [
            1.8711892,
            50.9571864
          ],
          [
            1.8718475,
            50.9573314
          ],
          [
            1.8719415,
            50.9573518
          ],
          [
            1.8726647,
            50.9575046
          ],
          [
            1.8727997,
            50.9575322
          ],
          [
            1.8731907,
            50.9576147
          ],
          [
            1.8735584,
            50.9576929
          ],
          [
            1.8738857,
            50.9577626
          ],
          [
            1.874568,
            50.9579075
          ],
          [
            1.8746258,
            50.9579185
          ],
          [
            1.8747049,
            50.9579324
          ],
          [
            1.8747862,
            50.9579431
          ],
          [
            1.8748789,
            50.9579538
          ]
        ]
      },
      "id": "way/583042225"
    },
    {
      "type": "Feature",
      "properties": {
        "@id": "way/583193333",
        "highway": "residential",
        "name": "Grande Rue du Petit Courgain"
      },
      "geometry": {
        "type": "LineString",
        "coordinates": [
          [
            1.8828251,
            50.9579743
          ],
          [
            1.8825325,
            50.9579841
          ],
          [
            1.882444,
            50.9579866
          ],
          [
            1.8823354,
            50.9579891
          ],
          [
            1.8822245,
            50.9579901
          ],
          [
            1.8816699,
            50.9579999
          ],
          [
            1.8815616,
            50.9580018
          ],
          [
            1.8814757,
            50.958002
          ],
          [
            1.8808904,
            50.9580017
          ],
          [
            1.8807824,
            50.9580001
          ],
          [
            1.8806899,
            50.9579973
          ],
          [
            1.8805716,
            50.9579923
          ],
          [
            1.8799201,
            50.9579587
          ],
          [
            1.8798311,
            50.9579548
          ],
          [
            1.879735,
            50.9579528
          ],
          [
            1.8796631,
            50.9579513
          ],
          [
            1.8795832,
            50.9579514
          ],
          [
            1.8794804,
            50.9579528
          ],
          [
            1.87771,
            50.9579885
          ],
          [
            1.8763731,
            50.9580161
          ],
          [
            1.8760794,
            50.9580198
          ],
          [
            1.8758681,
            50.9580224
          ],
          [
            1.8758046,
            50.9580236
          ],
          [
            1.8757264,
            50.9580229
          ],
          [
            1.8756527,
            50.9580204
          ],
          [
            1.8755385,
            50.9580124
          ]
        ]
      },
      "id": "way/583193333"
    },
    {
      "type": "Feature",
      "properties": {
        "@id": "way/738712891",
        "highway": "tertiary",
        "name": "Rue du Nord"
      },
      "geometry": {
        "type": "LineString",
        "coordinates": [
          [
            1.8745327,
            50.9633436
          ],
          [
            1.8749686,
            50.9617836
          ],
          [
            1.8749909,
            50.9617151
          ],
          [
            1.8750287,
            50.9616419
          ],
          [
            1.8750745,
            50.9615743
          ],
          [
            1.8751359,
            50.9614992
          ],
          [
            1.8752596,
            50.9613726
          ],
          [
            1.8754528,
            50.961182
          ],
          [
            1.8754963,
            50.9611328
          ],
          [
            1.8755402,
            50.9610761
          ]
        ]
      },
      "id": "way/738712891"
    }
  ]
}